Working with Big Data
…
raw %>%
  arrange(byear) %>%
  head(1) %>%
  pull(byear)

## [1] 1854

Calculate the average age at death by birth year. What two years have the highest average? Why? Without looking can you guess which years have the lowest average?

raw %>%
  group_by(byear) %>%
  summarize(avg_age = mean(death_age)) %>%
  arrange(avg_age)

## # A tibble: 82 x 2
##    byear avg_age
##    <dbl>   <dbl>
##  1  1940    55.6
##  2  1939    56.1
##  3  1938    57.1
##  4  1937    58.0
##  5  1936    58.9
##  6  1935    59.8
##  7  1934    60.6
##  8  1933    61.6
##  9  1932    62.4
## 10  1931    63.3
## #  with 72 more rows
…
